{
	"info": {
		"_postman_id": "16be6d13-3228-431e-9fa5-9c7ba20e1fff",
		"name": "TVI",
		"schema": "https://schema.getpostman.com/json/collection/v2.1.0/collection.json"
	},
	"item": [
		{
			"name": "Генерация продуктов (20 шт.)",
			"request": {
				"method": "GET",
				"header": [],
				"url": {
					"raw": "localhost/product/",
					"host": [
						"localhost"
					],
					"path": [
						"product",
						""
					]
				}
			},
			"response": []
		},
		{
			"name": "Создание заказа",
			"request": {
				"method": "POST",
				"header": [],
				"body": {
					"mode": "raw",
					"raw": "{\n    \"products\": { // список продуктов с кол-вом\n        \"2\": 3, // id продукта -> кол-во продукта\n        \"4\": 1\n    }\n}",
					"options": {
						"raw": {
							"language": "json"
						}
					}
				},
				"url": {
					"raw": "localhost/order/",
					"host": [
						"localhost"
					],
					"path": [
						"order",
						""
					]
				}
			},
			"response": []
		},
		{
			"name": "Оплата заказа",
			"request": {
				"method": "POST",
				"header": [],
				"body": {
					"mode": "raw",
					"raw": "{\n    \"orderId\": 7, // id заказа\n    \"sum\": 13684 // сумма оплаты\n}",
					"options": {
						"raw": {
							"language": "json"
						}
					}
				},
				"url": {
					"raw": "localhost/payment/order/",
					"host": [
						"localhost"
					],
					"path": [
						"payment",
						"order",
						""
					]
				}
			},
			"response": []
		}
	],
	"protocolProfileBehavior": {}
}